{
  "version": 2,
  "artifactType": {
    "type": "APK",
    "kind": "Directory"
  },
  "applicationId": "edu.bodhisprout",
  "variantName": "release",
  "elements": [
    {
      "type": "SINGLE",
      "filters": [],
      "versionCode": 3,
      "versionName": "1.0.2",
      "outputFile": "app-release.apk"
    }
  ]
}